ts workshop
…
candy_new=candy %>% 
  rename('production'='IPG3113N') %>%  mutate(observation_date=yearmonth(observation_date))

cndy=candy_new %>%
as_tsibble(index =observation_date,regular = T) 

cndy

## # A tsibble: 548 x 2 [1M]
##    observation_date production
##               <mth>      <dbl>
##  1         1972 Jan       85.7
##  2         1972 Feb       71.8
##  3         1972 Mar       66.0
##  4         1972 Apr       64.6
##  5         1972 May       65.0
##  6         1972 Jun       67.6
##  7         1972 Jul       69.0
##  8         1972 Aug       70.8
##  9         1972 Sep       75.0
## 10         1972 Oct      107. 
## #  with 538 more rows

cdy=candy_new %>%
tsibble(index =observation_date,regular = T) %>% 
  fill_gaps()

cndy

## # A tsibble: 548 x 2 [1M]
##    observation_date production
##               <mth>      <dbl>
##  1         1972 Jan       85.7
##  2         1972 Feb       71.8
##  3         1972 Mar       66.0
##  4         1972 Apr       64.6
##  5         1972 May       65.0
##  6         1972 Jun       67.6
##  7         1972 Jul       69.0
##  8         1972 Aug       70.8
##  9         1972 Sep       75.0
## 10         1972 Oct      107. 
## #  with 538 more rows
…
test=cndy %>% 
  filter(year(observation_date)>2010)
train=cndy %>% 
  filter(year(observation_date)<2010)
H=test %>% 
  length()
train

## # A tsibble: 456 x 2 [1M]
##    observation_date production
##               <mth>      <dbl>
##  1         1972 Jan       85.7
##  2         1972 Feb       71.8
##  3         1972 Mar       66.0
##  4         1972 Apr       64.6
##  5         1972 May       65.0
##  6         1972 Jun       67.6
##  7         1972 Jul       69.0
##  8         1972 Aug       70.8
##  9         1972 Sep       75.0
## 10         1972 Oct      107. 
## #  with 446 more rows
…
